{
   "quizzes": [
     {
       "QuizID": 1,
       "Title": "Mikä subway subi olet?",
       "Description": "Oletko koskaan ihmetelly, että mikä subi olet? Ei hätää. Me selvitämme sen.",
       "QuestionCount": 7,
       "ResultCount": 8,
       "QuizImageURL": "img.png",
       "Questions": [
         {
           "QuestionID": 1,
           "QuestionText": "Minne lähtisit mieluiten lomalle?",
           "AnswerCount": 4,
           "QuestionImageURL": "img.png",
           "QuizID": 1,
           "Answers": [
             {
               "AnswerID": 1,
               "AnswerText": "Yhdysvaltoihin",
               "ResultChange": "1",
               "AnswerImageURL": "img.png",
               "QuestionID": 1
             },
             {
               "AnswerID": 2,
               "AnswerText": "Italiaan",
               "ResultChange": "2",
               "AnswerImageURL": "img.png",
               "QuestionID": 1
             },
             {
               "AnswerID": 3,
               "AnswerText": "Meksikoon",
               "ResultChange": "3",
               "AnswerImageURL": "img.png",
               "QuestionID": 1
             },
             {
               "AnswerID": 4,
               "AnswerText": "En pidä matkailusta.",
               "ResultChange": "4",
               "AnswerImageURL": "img.png",
               "QuestionID": 1
             }
           ]
         },
         {
           "QuestionID": 2,
           "QuestionText": "Kenen keikalle lähtisit?",
           "AnswerCount": 4,
           "QuestionImageURL": "img.png",
           "QuizID": 1,
           "Answers": [
             {
               "AnswerID": 5,
               "AnswerText": "Taylor Swift",
               "ResultChange": "5",
               "AnswerImageURL": "img.png",
               "QuestionID": 2
             },
             {
               "AnswerID": 6,
               "AnswerText": "David Guetta",
               "ResultChange": "6",
               "AnswerImageURL": "img.png",
               "QuestionID": 2
             },
             {
               "AnswerID": 7,
               "AnswerText": "Nickelback",
               "ResultChange": "7",
               "AnswerImageURL": "img.png",
               "QuestionID": 2
             },
             {
               "AnswerID": 8,
               "AnswerText": "Maroon5",
               "ResultChange": "8",
               "AnswerImageURL": "img.png",
               "QuestionID": 2
             }
           ]
         },
         {
           "QuestionID": 3,
           "QuestionText": "Minkä eläimen liha on parasta?",
           "AnswerCount": 4,
           "QuestionImageURL": "img.png",
           "QuizID": 1,
           "Answers": [
             {
               "AnswerID": 9,
               "AnswerText": "Naudan",
               "ResultChange": "1",
               "AnswerImageURL": "img.png",
               "QuestionID": 3
             },
             {
               "AnswerID": 10,
               "AnswerText": "Sian",
               "ResultChange": "2",
               "AnswerImageURL": "img.png",
               "QuestionID": 3
             },
             {
               "AnswerID": 11,
               "AnswerText": "Kanan",
               "ResultChange": "3",
               "AnswerImageURL": "img.png",
               "QuestionID": 3
             },
             {
               "AnswerID": 12,
               "AnswerText": "En syö lihaa, koska se on epäeettistä. #woke",
               "ResultChange": "4",
               "AnswerImageURL": "img.png",
               "QuestionID": 3
             }
           ]
         },
         {
           "QuestionID": 4,
           "QuestionText": "Viikonlopun suunnitelmasi?",
           "AnswerCount": 4,
           "QuestionImageURL": "img.png",
           "QuizID": 1,
           "Answers": [
             {
               "AnswerID": 13,
               "AnswerText": "Yökerhoon",
               "ResultChange": "5",
               "AnswerImageURL": "img.png",
               "QuestionID": 4
             },
             {
               "AnswerID": 14,
               "AnswerText": "Baariin",
               "ResultChange": "6",
               "AnswerImageURL": "img.png",
               "QuestionID": 4
             },
             {
               "AnswerID": 15,
               "AnswerText": "Kotona",
               "ResultChange": "7",
               "AnswerImageURL": "img.png",
               "QuestionID": 4
             },
             {
               "AnswerID": 16,
               "AnswerText": "Töissä",
               "ResultChange": "8",
               "AnswerImageURL": "img.png",
               "QuestionID": 4
             }
           ]
         },
         {
           "QuestionID": 5,
           "QuestionText": "Sinun arkipäiväsi?",
           "AnswerCount": 4,
           "QuestionImageURL": "img.png",
           "QuizID": 1,
           "Answers": [
             {
               "AnswerID": 17,
               "AnswerText": "Alkuviikko",
               "ResultChange": "1",
               "AnswerImageURL": "img.png",
               "QuestionID": 5
             },
             {
               "AnswerID": 18,
               "AnswerText": "Keskiviikko",
               "ResultChange": "2",
               "AnswerImageURL": "img.png",
               "QuestionID": 5
             },
             {
               "AnswerID": 19,
               "AnswerText": "Loppuviikko",
               "ResultChange": "3",
               "AnswerImageURL": "img.png",
               "QuestionID": 5
             },
             {
               "AnswerID": 20,
               "AnswerText": "Mikä arkipäivä? Viikonloppu!",
               "ResultChange": "4",
               "AnswerImageURL": "img.png",
               "QuestionID": 5
             }
           ]
         },
         {
           "QuestionID": 6,
           "QuestionText": "Urheilu harrastuksesi?",
           "AnswerCount": 4,
           "QuestionImageURL": "img.png",
           "QuizID": 1,
           "Answers": [
             {
               "AnswerID": 21,
               "AnswerText": "Yleisurheilu",
               "ResultChange": "5",
               "AnswerImageURL": "img.png",
               "QuestionID": 6
             },
             {
               "AnswerID": 22,
               "AnswerText": "Joukkuepeli",
               "ResultChange": "6",
               "AnswerImageURL": "img.png",
               "QuestionID": 6
             },
             {
               "AnswerID": 23,
               "AnswerText": "Sali",
               "ResultChange": "7",
               "AnswerImageURL": "img.png",
               "QuestionID": 6
             },
             {
               "AnswerID": 24,
               "AnswerText": "Urheilu?",
               "ResultChange": "8",
               "AnswerImageURL": "img.png",
               "QuestionID": 6
             }
           ]
         },
         {
           "QuestionID": 7,
           "QuestionText": "Ruokajuomasi?",
           "AnswerCount": 4,
           "QuestionImageURL": "img.png",
           "QuizID": 1,
           "Answers": [
             {
               "AnswerID": 25,
               "AnswerText": "Kokis",
               "ResultChange": "1",
               "AnswerImageURL": "img.png",
               "QuestionID": 7
             },
             {
               "AnswerID": 26,
               "AnswerText": "Viini",
               "ResultChange": "2",
               "AnswerImageURL": "img.png",
               "QuestionID": 7
             },
             {
               "AnswerID": 27,
               "AnswerText": "Maito",
               "ResultChange": "3",
               "AnswerImageURL": "img.png",
               "QuestionID": 7
             },
             {
               "AnswerID": 28,
               "AnswerText": "Vesi?",
               "ResultChange": "4",
               "AnswerImageURL": "img.png",
               "QuestionID": 7
             }
           ]
         }
       ],
       "Results": [
         {
           "ResultID": 1,
           "ResultName": "American Steakhouse Melt",
           "ResultText": "Olet aito jenkki. Yhtä terveellinen kuin Big Mac.",
           "ResultWeightNumber": 0,
           "ResultImageURL": "img.png",
           "QuizID": 1
         },
         {
           "ResultID": 2,
           "ResultName": "Italian BMT",
           "ResultText": "Olet kuin lämmin tuulahdus Italian Toscanasta.",
           "ResultWeightNumber": 0,
           "ResultImageURL": "img.png",
           "QuizID": 1
         },
         {
           "ResultID": 3,
           "ResultName": "Spicy Italian",
           "ResultText": "Mamma Mia, ku olet kuuma!",
           "ResultWeightNumber": 0,
           "ResultImageURL": "img.png",
           "QuizID": 1
         },
         {
           "ResultID": 4,
           "ResultName": "Kana Teriyaki",
           "ResultText": "Olet yhtä päätön kuin päätön kana. Ryhmän selkeä lammas.",
           "ResultWeightNumber": 0,
           "ResultImageURL": "img.png",
           "QuizID": 1
         },
         {
           "ResultID": 5,
           "ResultName": "Kana Fajita",
           "ResultText": "Olet itsetietoinen ja itsevarma.",
           "ResultWeightNumber": 0,
           "ResultImageURL": "img.png",
           "QuizID": 1
         },
         {
           "ResultID": 6,
           "ResultName": "Kinkku",
           "ResultText": "Olet joulun kohokohta ja bileiden keskipiste!",
           "ResultWeightNumber": 0,
           "ResultImageURL": "img.png",
           "QuizID": 1
         },
         {
           "ResultID": 7,
           "ResultName": "Kalkkuna",
           "ResultText": "Olet aina kakkonen ja se toinen vaihtoehto.",
           "ResultWeightNumber": 0,
           "ResultImageURL": "img.png",
           "QuizID": 1
         },
         {
           "ResultID": 8,
           "ResultName": "Veggie Delite",
           "ResultText": "Olet trendikäs ja kaikki tietää sen.",
           "ResultWeightNumber": 0,
           "ResultImageURL": "img.png",
           "QuizID": 1
         }
       ]
     }
   ]
 }